P4/code/wave.vcd
$date
	Sun Nov 06 20:50:59 2022
$end
$version
	Icarus Verilog
$end
$timescale
	1ps
$end
$scope module tb $end
$var reg 1 ! clk $end
$var reg 1 " reset $end
$scope module mips $end
$var wire 32 # MemWD [31:0] $end
$var wire 5 $ RA1 [4:0] $end
$var wire 5 % RA2 [4:0] $end
$var wire 1 ! clk $end
$var wire 1 " reset $end
$var wire 5 & rt [4:0] $end
$var wire 5 ' rs [4:0] $end
$var wire 5 ( rd [4:0] $end
$var wire 16 ) offset [15:0] $end
$var wire 32 * nPC [31:0] $end
$var wire 32 + imm32 [31:0] $end
$var wire 1 , Zero $end
$var wire 1 - RegWrite $end
$var wire 2 . RegWDC [1:0] $end
$var wire 2 / RegWAC [1:0] $end
$var wire 32 0 RD2 [31:0] $end
$var wire 32 1 RD1 [31:0] $end
$var wire 32 2 PC4 [31:0] $end
$var wire 32 3 PC [31:0] $end
$var wire 1 4 MemWrite $end
$var wire 32 5 MemRD [31:0] $end
$var wire 16 6 MemAddr [15:0] $end
$var wire 32 7 Instr [31:0] $end
$var wire 2 8 IMControl [1:0] $end
$var wire 32 9 GRF_WD [31:0] $end
$var wire 5 : GRF_WA [4:0] $end
$var wire 2 ; Ext [1:0] $end
$var wire 32 < ALU_out [31:0] $end
$var wire 32 = ALU_D2 [31:0] $end
$var wire 1 > ALUSrc $end
$var wire 6 ? ALUControl [5:0] $end
$scope module ALU $end
$var wire 32 @ out [31:0] $end
$var wire 6 A op [5:0] $end
$var wire 1 , Zero $end
$var wire 32 B D2 [31:0] $end
$var wire 32 C D1 [31:0] $end
$upscope $end
$scope module Controller $end
$var wire 1 > ALUSrc $end
$var wire 1 4 MemWrite $end
$var wire 1 - RegWrite $end
$var wire 1 D add $end
$var wire 6 E funct [5:0] $end
$var wire 1 F jr $end
$var wire 6 G opcode [5:0] $end
$var wire 1 H sub $end
$var wire 1 I sw $end
$var wire 1 J ori $end
$var wire 1 K lw $end
$var wire 1 L lui $end
$var wire 1 M jal $end
$var wire 1 N j $end
$var wire 1 O beq $end
$var wire 2 P RegWDC [1:0] $end
$var wire 2 Q RegWAC [1:0] $end
$var wire 2 R IMControl [1:0] $end
$var wire 2 S Ext [1:0] $end
$var wire 6 T ALUControl [5:0] $end
$upscope $end
$scope module DataMem $end
$var wire 16 U Addr [15:0] $end
$var wire 1 4 MemWrite $end
$var wire 32 V ReadData [31:0] $end
$var wire 32 W WriteData [31:0] $end
$var wire 1 ! clk $end
$var wire 1 " reset $end
$var integer 32 X i [31:0] $end
$upscope $end
$scope module Extend $end
$var wire 2 Y Ext [1:0] $end
$var wire 16 Z imm [15:0] $end
$var wire 32 [ imm32 [31:0] $end
$upscope $end
$scope module GRF $end
$var wire 5 \ RA1 [4:0] $end
$var wire 5 ] RA2 [4:0] $end
$var wire 1 - RegWrite $end
$var wire 1 ! clk $end
$var wire 1 " reset $end
$var wire 32 ^ WD [31:0] $end
$var wire 5 _ WA [4:0] $end
$var wire 32 ` RD2 [31:0] $end
$var wire 32 a RD1 [31:0] $end
$var integer 32 b i [31:0] $end
$upscope $end
$scope module InstrMem $end
$var wire 32 c Instr [31:0] $end
$var wire 1 ! clk $end
$var wire 1 " reset $end
$var wire 32 d nPC [31:0] $end
$var parameter 32 e initaddr $end
$var reg 32 f PC [31:0] $end
$upscope $end
$scope module Mux_ALUSrc $end
$var wire 1 > ALUSrc $end
$var wire 32 g D1 [31:0] $end
$var wire 32 h D2 [31:0] $end
$var wire 32 i out [31:0] $end
$upscope $end
$scope module Mux_RegWAC $end
$var wire 5 j D1 [4:0] $end
$var wire 5 k D2 [4:0] $end
$var wire 2 l RegWAC [1:0] $end
$var wire 5 m out [4:0] $end
$upscope $end
$scope module Mux_RegWDC $end
$var wire 32 n D1 [31:0] $end
$var wire 32 o D2 [31:0] $end
$var wire 2 p RegWDC [1:0] $end
$var wire 32 q out [31:0] $end
$var wire 32 r D3 [31:0] $end
$upscope $end
$scope module PC_Calc $end
$var wire 2 s IMControl [1:0] $end
$var wire 32 t PC [31:0] $end
$var wire 32 u RegData [31:0] $end
$var wire 1 , Zero $end
$var wire 26 v instr_index [25:0] $end
$var wire 16 w offset [15:0] $end
$var wire 32 x nPC [31:0] $end
$var wire 32 y PC4 [31:0] $end
$upscope $end
$upscope $end
$upscope $end
$enddefinitions $end
$comment Show the parameter values. $end
$dumpall
b11000000000000 e
$end
#0
$dumpvars
bx y
bx x
bx w
bx v
bx u
bx t
bx s
bx r
bx q
bx p
bx o
bx n
bx m
bx l
bx k
bx j
bx i
bx h
bx g
bx f
bx d
bx c
bx b
bx a
bx `
bx _
bx ^
bx ]
bx \
bx [
bx Z
bx Y
bx X
bx W
bx V
bx U
bx00xxx T
bx S
bx R
bx Q
bx P
xO
xN
xM
xL
xK
xJ
xI
xH
bx G
xF
bx E
xD
bx C
bx B
bx00xxx A
bx @
bx00xxx ?
x>
bx =
bx <
bx ;
bx :
bx 9
bx 8
bx 7
bx 6
bx 5
x4
bx 3
bx 2
bx 1
bx 0
bx /
bx .
x-
x,
bx +
bx *
bx )
bx (
bx '
bx &
bx %
bx $
bx #
1"
0!
$end
#20000
b0 5
b0 V
b0 o
0,
b100 9
b100 ^
b100 q
b100 6
b100 U
b100 <
b100 @
b100 n
b0 8
b0 R
b0 s
b11000000000100 *
b11000000000100 d
b11000000000100 x
b1 :
b1 _
b1 m
1-
b1 /
b1 Q
b1 l
1>
b100 =
b100 B
b100 i
b100101 ?
b100101 A
b100101 T
b0 .
b0 P
b0 p
b0 #
b0 W
b0 0
b0 `
b0 g
b0 1
b0 C
b0 a
b0 u
b100 +
b100 [
b100 h
0D
0H
b0 ;
b0 S
b0 Y
0F
b0 (
b0 j
b1 %
b1 ]
b1 &
b1 k
b0 $
b0 \
b0 '
b100 )
b100 Z
b100 w
b100 E
1J
0K
04
0I
0O
0L
0N
0M
b1101 G
b10000000000000100 v
b110100000000010000000000000100 7
b110100000000010000000000000100 c
b11000000000100 2
b11000000000100 r
b11000000000100 y
b11000000000000 3
b11000000000000 f
b11000000000000 t
b11000000000000 X
b100000 b
1!
#30000
0"
#40000
0!
#60000
b0 6
b0 U
1,
b0 <
b0 @
b0 n
b1 8
b1 R
b1 s
b11000000001000 9
b11000000001000 ^
b11000000001000 q
b10 /
b10 Q
b10 l
b0 ?
b0 A
b0 T
0>
b10 .
b10 P
b10 p
b11111 :
b11111 _
b11111 m
b0 =
b0 B
b0 i
b110000000100 +
b110000000100 [
b110000000100 h
b1 (
b1 j
b0 %
b0 ]
b0 &
b0 k
b110000000100 )
b110000000100 Z
b110000000100 w
0J
1M
b11 G
b110000000100 v
b1100000000000000110000000100 7
b1100000000000000110000000100 c
b0 #
b0 W
b0 0
b0 `
b0 g
b11000000010000 *
b11000000010000 d
b11000000010000 x
b11000000001000 2
b11000000001000 r
b11000000001000 y
b11000000000100 3
b11000000000100 f
b11000000000100 t
1!
#80000
0!
#100000
b10 6
b10 U
0,
b10 <
b10 @
b10 n
b10 :
b10 _
b10 m
b10 =
b10 B
b10 i
b1 /
b1 Q
b1 l
b100101 ?
b100101 A
b100101 T
1>
b0 .
b0 P
b0 p
b0 8
b0 R
b0 s
b11000000010100 *
b11000000010100 d
b11000000010100 x
b10 +
b10 [
b10 h
1-
b0 (
b0 j
b10 %
b10 ]
b10 &
b10 k
b10 )
b10 Z
b10 w
b10 E
1J
0M
b1101 G
b100000000000000010 v
b10 9
b10 ^
b10 q
b110100000000100000000000000010 7
b110100000000100000000000000010 c
b11000000010100 2
b11000000010100 r
b11000000010100 y
b11000000010000 3
b11000000010000 f
b11000000010000 t
1!
#120000
0!
#140000
b100 6
b100 U
b11111 :
b11111 _
b11111 m
b100 <
b100 @
b100 n
0-
b11000000011000 9
b11000000011000 ^
b11000000011000 q
b10 /
b10 Q
b10 l
b100000 ?
b100000 A
b100000 T
b10 .
b10 P
b10 p
b1 ;
b1 S
b1 Y
b0 =
b0 B
b0 i
b100 1
b100 C
b100 a
b100 u
b0 +
b0 [
b0 h
b1 $
b1 \
b1 '
b0 )
b0 Z
b0 w
b0 E
0J
14
1I
b101011 G
b1000100000000000000000 v
b10101100001000100000000000000000 7
b10101100001000100000000000000000 c
b10 #
b10 W
b10 0
b10 `
b10 g
b11000000011000 *
b11000000011000 d
b11000000011000 x
b11000000011000 2
b11000000011000 r
b11000000011000 y
b11000000010100 3
b11000000010100 f
b11000000010100 t
1!
#160000
0!
#180000
b11 :
b11 _
b11 m
b1 /
b1 Q
b1 l
1-
b0 8
b0 R
b0 s
b1 .
b1 P
b1 p
1>
b0 #
b0 W
b0 0
b0 `
b0 g
b11 %
b11 ]
b11 &
b11 k
1K
04
0I
b100011 G
b1000110000000000000000 v
b10 9
b10 ^
b10 q
b10001100001000110000000000000000 7
b10001100001000110000000000000000 c
b11000000011100 *
b11000000011100 d
b11000000011100 x
b11000000011100 2
b11000000011100 r
b11000000011100 y
b11000000011000 3
b11000000011000 f
b11000000011000 t
b10 5
b10 V
b10 o
1!
#200000
0!
#220000
b0 5
b0 V
b0 o
1,
b11000000100000 9
b11000000100000 ^
b11000000100000 q
b0 ?
b0 A
b0 T
b10 /
b10 Q
b10 l
b10 8
b10 R
b10 s
b0 6
b0 U
b0 =
b0 B
b0 i
0>
0-
b11111 :
b11111 _
b11111 m
b0 <
b0 @
b0 n
b1000 +
b1000 [
b1000 h
b10 .
b10 P
b10 p
b0 ;
b0 S
b0 Y
b11000000001000 1
b11000000001000 C
b11000000001000 a
b11000000001000 u
1F
b0 %
b0 ]
b0 &
b0 k
b11111 $
b11111 \
b11111 '
b1000 )
b1000 Z
b1000 w
b1000 E
0K
b0 G
b11111000000000000000001000 v
b11111000000000000000001000 7
b11111000000000000000001000 c
b0 #
b0 W
b0 0
b0 `
b0 g
b11000000001000 *
b11000000001000 d
b11000000001000 x
b11000000100000 2
b11000000100000 r
b11000000100000 y
b11000000011100 3
b11000000011100 f
b11000000011100 t
1!
#240000
0!
#260000
b10 5
b10 V
b10 o
b111 6
b111 U
0,
b111 <
b111 @
b111 n
b100 :
b100 _
b100 m
b11 =
b11 B
b11 i
b11000000001100 *
b11000000001100 d
b11000000001100 x
1-
b1 /
b1 Q
b1 l
b0 8
b0 R
b0 s
b100101 ?
b100101 A
b100101 T
1>
b0 .
b0 P
b0 p
b100 1
b100 C
b100 a
b100 u
b11 +
b11 [
b11 h
0F
b100 %
b100 ]
b100 &
b100 k
b1 $
b1 \
b1 '
b11 )
b11 Z
b11 w
b11 E
1J
b1101 G
b1001000000000000000011 v
b111 9
b111 ^
b111 q
b110100001001000000000000000011 7
b110100001001000000000000000011 c
b11000000001100 2
b11000000001100 r
b11000000001100 y
b11000000001000 3
b11000000001000 f
b11000000001000 t
1!
#280000
0!
#300000
b0 5
b0 V
b0 o
b0 6
b0 U
1,
b0 <
b0 @
b0 n
b1 8
b1 R
b1 s
0-
b11000000010000 9
b11000000010000 ^
b11000000010000 q
b10 /
b10 Q
b10 l
b0 ?
b0 A
b0 T
0>
b10 .
b10 P
b10 p
b11111 :
b11111 _
b11111 m
b0 =
b0 B
b0 i
b0 1
b0 C
b0 a
b0 u
b110000001000 +
b110000001000 [
b110000001000 h
b1 (
b1 j
b0 %
b0 ]
b0 &
b0 k
b0 $
b0 \
b0 '
b110000001000 )
b110000001000 Z
b110000001000 w
b1000 E
0J
1N
b10 G
b110000001000 v
b1000000000000000110000001000 7
b1000000000000000110000001000 c
b0 #
b0 W
b0 0
b0 `
b0 g
b11000000100000 *
b11000000100000 d
b11000000100000 x
b11000000010000 2
b11000000010000 r
b11000000010000 y
b11000000001100 3
b11000000001100 f
b11000000001100 t
1!
#320000
0!
#340000
1-
b0 .
b0 P
b0 p
b101 :
b101 _
b101 m
b1011 6
b1011 U
b0 /
b0 Q
b0 l
0,
b1011 <
b1011 @
b1011 n
b0 8
b0 R
b0 s
b100 =
b100 B
b100 i
b100000 ?
b100000 A
b100000 T
b11000000100100 *
b11000000100100 d
b11000000100100 x
b100 #
b100 W
b100 0
b100 `
b100 g
b111 1
b111 C
b111 a
b111 u
b10100000100000 +
b10100000100000 [
b10100000100000 h
1D
b101 (
b101 j
b1 %
b1 ]
b1 &
b1 k
b100 $
b100 \
b100 '
b10100000100000 )
b10100000100000 Z
b10100000100000 w
b100000 E
0N
b0 G
b100000010010100000100000 v
b1011 9
b1011 ^
b1011 q
b100000010010100000100000 7
b100000010010100000100000 c
b11000000100100 2
b11000000100100 r
b11000000100100 y
b11000000100000 3
b11000000100000 f
b11000000100000 t
1!
#360000
0!
#380000
b11 8
b11 R
b11 s
0-
b10 .
b10 P
b10 p
b11000000101000 9
b11000000101000 ^
b11000000101000 q
b0 6
b0 U
b10 /
b10 Q
b10 l
b1011 =
b1011 B
b1011 i
1,
b0 <
b0 @
b0 n
b100010 ?
b100010 A
b100010 T
b11111 :
b11111 _
b11111 m
b1011 #
b1011 W
b1011 0
b1011 `
b1011 g
b1011 1
b1011 C
b1011 a
b1011 u
b1 +
b1 [
b1 h
0D
b0 (
b0 j
b101 %
b101 ]
b101 &
b101 k
b101 $
b101 \
b101 '
b1 )
b1 Z
b1 w
b1 E
1O
b100 G
b101001010000000000000001 v
b10000101001010000000000000001 7
b10000101001010000000000000001 c
b11000000101100 *
b11000000101100 d
b11000000101100 x
b11000000101000 2
b11000000101000 r
b11000000101000 y
b11000000100100 3
b11000000100100 f
b11000000100100 t
1!
#400000
0!
#420000
b0 8
b0 R
b0 s
1-
bx 5
bx V
bx o
b0 .
b0 P
b0 p
b1111111111110101 6
b1111111111110101 U
b11110 :
b11110 _
b11110 m
0,
b11111111111111111111111111110101 <
b11111111111111111111111111110101 @
b11111111111111111111111111110101 n
b0 /
b0 Q
b0 l
b0 1
b0 C
b0 a
b0 u
b1111000000100010 +
b1111000000100010 [
b1111000000100010 h
1H
b11000000110000 *
b11000000110000 d
b11000000110000 x
b11110 (
b11110 j
b0 $
b0 \
b0 '
b1111000000100010 )
b1111000000100010 Z
b1111000000100010 w
b100010 E
0O
b0 G
b1011111000000100010 v
b11111111111111111111111111110101 9
b11111111111111111111111111110101 ^
b11111111111111111111111111110101 q
b1011111000000100010 7
b1011111000000100010 c
b11000000110000 2
b11000000110000 r
b11000000110000 y
b11000000101100 3
b11000000101100 f
b11000000101100 t
1!
#440000
0!
#460000
bx 8
bx R
bx s
x-
bx .
bx P
bx p
bx 9
bx ^
bx q
bx 6
bx U
x,
bx <
bx @
bx n
bx /
bx Q
bx l
bx =
bx B
bx i
bx00xxx ?
bx00xxx A
bx00xxx T
bx :
bx _
bx m
bx #
bx W
bx 0
bx `
bx g
bx 1
bx C
bx a
bx u
bx +
bx [
bx h
xD
xH
bx ;
bx S
bx Y
x>
xF
bx (
bx j
bx %
bx ]
bx &
bx k
bx $
bx \
bx '
bx )
bx Z
bx w
bx E
xJ
xK
x4
xI
xO
xL
xN
xM
bx G
bx v
bx 7
bx c
bx *
bx d
bx x
b11000000110100 2
b11000000110100 r
b11000000110100 y
b11000000110000 3
b11000000110000 f
b11000000110000 t
1!
#480000
0!
#500000
bx 2
bx r
bx y
bx 3
bx f
bx t
1!
